,Ridge,Logistic (L1 Norm),Logistic (L2 Norm),SVM_Linear,SVM_Poly (degree 3),SVM_RBF,NBC,LDA,QDA
0,-0.5696076051481411,-1.6496014206300567,-1.2737493799555002,-1.3973468418348811,-1.0250101919195997,-1.1535202307692223,0.043635500503615705,0.059156342746399894,0.0
1,-0.5310559756122614,-1.500477267020524,-1.1130976090501432,-0.8839392695130313,-1.0142966952641235,-0.9637965252664755,0.02647058437636711,0.09579442879227928,0.0
2,-0.6833120542846411,-2.033832481779418,-1.8576956272481053,-1.3783978838322897,-0.8933201298691023,-1.0057764385273402,0.896158190578351,0.06682170162298451,0.0
3,-1.0867768653704006,-5.074416188419445,-3.298513551618635,-2.4485113288262648,-1.2932896441037438,-1.194388282036533,2.68848206481998e-17,0.00444254889340161,0.0
4,-0.8320710412260554,-2.251763987185116,-2.0532959662305132,-1.2703298888927046,-1.075165401219776,-1.3752078664392815,7.574392733375175e-07,0.048335875096353,0.0
5,-0.7268953296656258,-3.58661330041647,-1.8243219329402902,-1.3968799961767546,-0.8858788433090349,-1.0341830417373887,4.558538863853773e-13,0.02422406624090028,0.0
6,-0.9051468898476762,-3.8951318660914698,-2.6378656741357775,-2.039937521536369,-1.0484996238567532,-1.2590643187056458,5.1232973424659234e-08,0.013045234242907126,0.0
7,-0.6917379523257384,-2.9888752404877406,-1.9914325436651688,-1.503932330338884,-0.9976652503827164,-1.2153243813093824,3.559213623612272e-06,0.06367239108532323,0.0
8,-0.7719294549540866,-3.294658382324736,-2.080005348004585,-1.6896833354673486,-1.0055276838157654,-1.053436128261721,1.4761077101666173e-06,0.03155685673256243,0.0
9,-0.7164643487560773,-1.4471688040683472,-1.7497164264615157,-1.7705949432304973,-0.9726870884658776,-1.1614918542799628,0.00025984120860887754,0.033825334307794754,0.0
10,-0.8298814765985066,-2.90771233703542,-2.2506794937958507,-1.1235980647204231,-1.156370812880703,-0.9481167435620494,5.851344295465505e-12,0.05906225705279539,0.0
11,-0.639101970290608,-2.2958862649312404,-1.8019940012181261,-1.7794843428166782,-1.1032358827741553,-1.591652431016291,0.3220205957316608,0.035702504266592494,0.0
12,-0.6633850562649697,-1.8882264760234109,-1.6871079367880235,-1.2518729922112195,-1.0104691244382298,-1.374264173495218,0.09614964964081472,0.0755378524682068,0.0
13,-0.9791513158940861,-3.982555755889239,-2.7560886132661326,-1.762166596188261,-1.120651125205544,-1.0664845322168528,4.0130920350403855e-16,0.015907590445128385,0.0
14,-0.5702990469039484,-1.3422890246250496,-1.4237978258058188,-1.09451398015828,-0.7813601447779399,-0.7260791594398703,0.11786216394985821,0.18428582477962724,0.0
15,-0.6757272506635208,-1.7130765472980423,-1.6222123856645017,-1.436547155653245,-1.0260763104969226,-1.1054670942061744,3.216774707403758e-05,0.04684091456899893,0.0
16,0.14168901521372923,1.632764985549664,0.9155017203529789,0.7978548811654305,0.8423225518231678,0.1589062211232502,1.0,0.897403572687897,0.0
17,-1.0304404504442854,-3.910268015224201,-3.0290210901678996,-2.3066160776326496,-1.1345769988984613,-1.3616382040701196,4.6117057236042046e-08,0.005434207885315245,0.0
18,-0.8068535898436786,-2.624394955923484,-2.2229065496654714,-1.5502325157457664,-1.0976714494281061,-1.3505972896781069,1.1747624200638306e-07,0.025447881549969343,0.0
19,-0.9253777386800626,-4.890209021655352,-2.4605767234631415,-1.8915879319556632,-1.0209873925437227,-1.1061864243281632,1.285296484675758e-12,0.017456941048519387,0.0
20,-1.0802066940670398,-8.152452379032546,-3.8127577911642376,-2.398806854093917,-1.994010796686641,-0.9908340023456048,1.34668321150075e-28,0.0036607961215941597,0.0
21,-0.8739041422236089,-2.910025425116813,-2.3745150602848506,-1.7222689387421832,-1.0561259461040318,-1.291505802266254,7.671612929369382e-07,0.02084624831828212,0.0
22,-0.7124817971860335,-2.6264965055512453,-1.8279309230642071,-1.2149916751785588,-1.0113825269559922,-1.180242822890432,7.039258380099185e-08,0.040753683126636533,0.0
23,-0.4736919576448727,-0.3455992746716694,-0.9486089242032183,-1.0114910269160857,-0.9854873390053893,-1.149073515451338,0.6180043157513042,0.14413785112351687,0.0
24,0.23366043873131537,1.2703704199297596,1.1576996324884687,0.2596707117185657,0.2701614556956069,0.6559957841159259,1.0,0.8874010438857142,0.0
25,-0.587788830403991,-0.7720496884958981,-1.2992911529994475,-1.3997552950117322,-0.97533284718012,-1.023993845738252,0.0007318445842603334,0.08659970069342413,0.0
26,-0.9273352661079817,-3.8556840299365005,-2.641271563643289,-2.438473726974707,-1.1174725624148945,-1.3385727839146653,7.472314880974764e-08,0.014176634669942883,0.0
27,-0.4223583734010735,-1.7998102507083455,-1.0288381079465199,-1.1621244837547602,-0.9044651083314802,-1.0371801248214894,0.9999986188032768,0.11604505980214805,0.0
28,-0.649258611322854,-3.702387906002432,-1.665543937478645,-1.658770507526147,-0.9259620904876481,-0.8869875471930535,0.009937493236336555,0.028185894052173817,0.0
29,0.035624524312762196,0.31181411402709047,0.5003338497411507,0.05564039332463633,-0.2895417977853153,-0.020173799066287246,1.0,0.6692659253679603,0.0
30,-0.7884484362038807,-2.514245784439581,-2.0538607822202337,-1.5625447272696364,-1.0253774382141128,-1.335719714622812,9.30271789593509e-05,0.03116297512553984,0.0
31,-0.9988680167932361,-6.7086702866937395,-3.111476302148305,-2.4668439821216994,-1.2139858238057026,-1.3545075910169506,8.731437967499328e-15,0.004301281993187077,0.0
32,-0.7395386147774282,-3.112102979011892,-1.9641273438609703,-1.8475899678839207,-1.025852200252576,-1.2702345250951363,0.00394807335649925,0.025942324603354116,0.0
33,-0.425103442560507,-0.16110269506186814,-0.6382474504374452,-0.4904196200209262,-0.9457353547646141,-0.5018528986666888,0.0006719728416398937,0.23093696921032306,0.0
34,-0.6710758726963737,-1.6193204928963247,-1.5717498270070662,-1.3731347459996348,-1.0066325139212373,-1.2269186168653283,7.784476283296238e-06,0.04570512019191583,0.0
35,-0.7095755359671135,-1.9437789918839143,-1.7532582783663304,-1.4340461995090044,-1.016870248973958,-1.277900926646194,0.0003717489301084068,0.08013333126058014,0.0
36,0.6321232560122679,5.229644633099156,2.5600752748596163,1.4350563493956399,3.9173151321504536,0.9924276266471697,1.0,0.9929011871986193,0.0
37,-0.7081524763068259,-3.9531780119035544,-2.2132366403544106,-2.356656045222784,-1.1225588597164178,-1.4723873547773838,0.9999108641011785,0.018554471859720405,0.0
38,-0.7953631025018414,-5.534456186674127,-2.3926368728399963,-1.4791096906500565,-1.1705785683276977,-1.1758316206878496,8.145832189847384e-17,0.03264044596829249,0.0
39,-0.9201072997155774,-2.801062234094552,-2.3622143832258273,-1.8642413338529495,-1.0691759723108887,-0.9590845205980583,2.6051754288192936e-09,0.024058574608608566,0.0
40,-0.7204393814584047,-1.367163698772039,-1.6749313625407871,-1.1425613654983486,-1.0082409121594271,-1.0184525765501848,0.00012051702216400606,0.06977678447480978,0.0
41,0.09874402873427457,2.139161893716852,0.9149374832467645,0.050052172625711044,1.1837251902525647,0.29954136137233517,1.0,0.8079370224065743,0.0
42,-0.9723310216286583,-4.54893617592753,-2.987012196306943,-1.625731005478209,-1.1457850072604399,-1.2331136692296636,2.1374841901346968e-14,0.014669080228775276,0.0
43,-0.4990466000712397,-0.569311290019545,-0.8643300324282487,-0.7003962205849179,-0.9965089462748342,-0.9698025442369194,4.692253470343986e-10,0.21683427320286094,0.0
44,-0.5199545009083916,-1.9406431210495017,-1.4294086472473362,-1.601978809663323,-0.8797686505494255,-0.9554058347993293,0.9999997925439461,0.10132392350054577,0.0
45,-0.8781942819543644,-2.418075256583309,-2.2544044254621025,-1.3560696158529177,-1.088836932018499,-1.263426522616853,5.331194325638958e-09,0.017255661917871267,0.0
46,-0.5464875449709683,-2.1265265676002487,-1.2913855032236534,-1.1397224277299347,-0.9632047668536199,-0.9867351485276996,0.0016911214149781225,0.08415225501505079,0.0
47,0.03871710949742957,1.6332672731842148,0.8490796403533878,0.142177836624513,-0.7852794752479214,0.005981534944684619,0.9999996879591028,0.7136507522975626,0.0
48,-0.12180792057892148,-0.34200573075110263,0.12020138202362918,-0.4473980002772153,1.2525288345720371,0.48997576141274307,0.9999999998566338,0.5243085579041972,0.0
49,-1.204080201774166,-7.8784891266654515,-3.88091563007345,-3.173877096874876,-1.2098587445064868,-1.1053878167995985,4.4127760154171935e-20,0.0017882868255596608,0.0
50,-0.8525027684259162,-5.118958658364921,-2.47394891062156,-1.4774400396868446,-1.028765350549693,-1.1960577677640425,5.225221492727091e-13,0.014799711611053736,0.0
51,-0.955723962670004,-4.695520135585205,-2.7107705021842934,-2.195072510037858,-1.0328289832872029,-1.3453754001766345,6.574812587227267e-11,0.009835803755408202,0.0
52,-0.1792024273815096,-0.6680365699344215,-0.11447163923883652,-0.519306380730602,0.0026638829957059684,-0.20236330817714182,0.999999999999801,0.5587113707370426,0.0
53,-0.9702175126734458,-2.5373097752021803,-2.5728513267073576,-2.0220883234937337,-1.0660802838661882,-1.122130895489035,6.083508294086949e-09,0.009549191157604268,0.0
54,-0.8834978772759854,-8.567796141071941,-3.0763560903495923,-2.2052041653810948,-1.4656334941792555,-1.2760860030792724,7.792306120946161e-28,0.0047856058614850205,0.0
55,-1.0418542956630241,-7.471815970950879,-3.390583854481104,-2.8377711045836564,-1.3855838668333866,-1.2809361211365786,6.841536029612321e-21,0.0032734828819710048,0.0
56,-0.12510243668253296,-1.408755977215267,-0.06602356641648433,-0.4482889467744373,-0.4497645338540862,-0.38466158928409033,1.0,0.35685461836575466,0.0
57,-0.4251756606528837,-0.29719626681211553,-0.6908868840164144,-0.502436108305313,-0.8067770680295889,-0.39302801155595307,0.06698333027403654,0.25515444046717634,0.0
58,-0.8194117489770514,-2.843261210661061,-2.162101167065962,-1.563336587522369,-1.0696351243276352,-1.2470040439372163,1.0118292870642578e-08,0.022949462793925138,0.0
59,-1.1619883891473504,-5.304897177431071,-3.619745447519927,-2.4866103214381328,-1.2328274289510566,-1.2998625235667403,2.614209345998585e-10,0.0032292754679253935,0.0
60,-1.0379798215008047,-4.866568049663292,-3.110840079930199,-2.2471475190502272,-1.1996688351927758,-1.1904182330435078,3.527667133301616e-13,0.014003935391993513,0.0
61,-0.2522822172219686,-1.2805579175481165,-0.514028710573136,-0.8443699716590105,-0.801209646754581,-0.8846828873772739,0.9999999999999787,0.25730093426666384,0.0
62,-0.43720756406732486,-2.9844012850774164,-1.0163351741037048,-1.4580968343874803,-0.9261175940169855,-0.8893191729510832,0.9999999999863078,0.04699822538477486,0.0
63,-0.08138140684094075,-0.5662721852575878,0.2745966513338465,-0.552964147136163,-0.16318245567310719,-0.2863998953447118,0.9999999408906906,0.44344706219094615,0.0
64,-0.737095444038714,-3.828262512372733,-2.0851450875442374,-1.679987508154901,-1.024488080259087,-1.1700540986066035,2.3281678522160942e-10,0.01234261518683978,0.0
65,-0.12729126597542523,1.0313649027373155,0.051836553638191285,-0.26347539893273986,-0.522808010177258,-0.4057463304559161,0.9999999999999929,0.6958462378584914,0.0
66,-1.1473961755954574,-5.999560709792956,-3.5168334171877444,-2.346122315312014,-1.2945321735956947,-1.0980096233219743,1.3362279084289295e-12,0.0021412388621973905,0.0
67,-0.8544844752873586,-3.339036012871241,-2.431327446399649,-2.0106702246602923,-1.238865310104114,-1.4416660570270523,0.0015851761331051224,0.035442106924591175,0.0
68,-0.9704365558117827,-10.004580802885897,-3.502575935830486,-2.668655167920396,-1.719176466021727,-1.1685530734316891,6.283793982701198e-35,0.0023006381613346234,0.0
69,-1.014025848097141,-3.78656597776072,-2.9638771652455373,-2.099574807603976,-1.0661839133202902,-1.3224359604292555,3.4728635329185494e-09,0.007364789966296624,0.0
70,-0.0574962448663785,0.984223191153319,0.2587361785894764,-0.023393970691938826,-0.3079359280237386,-0.07200683221980475,0.9999999999988773,0.7890025598427377,0.0
71,-0.3932908120448442,-1.5453220078886225,-0.9749703803424826,-1.0067808948205483,-0.8632854147160229,-0.8391532622871821,0.9999999999998366,0.22101738074827837,0.0
72,0.2906069856999216,1.1585103276715976,1.2332103235460652,0.40841356603924606,0.12259057305125087,0.364588836038147,1.0,0.9140335340898128,0.0
73,-0.995760994655799,-3.3363654911785856,-2.8552002514004995,-2.06306220248151,-1.071749058690465,-1.2797317618505488,1.3624560508533998e-07,0.014474229807207594,0.0
74,-1.1420010237409335,-21.311145587450326,-4.425843559714693,-3.9577797602648035,-1.3089008159841218,-0.3868939560085135,1.3409559370662238e-142,3.443360890979057e-08,0.0
75,-1.1432293974418974,-7.789566617052986,-3.7234016950496565,-2.9353298429018304,-1.345842730943147,-1.3063319641411777,2.1329590891612735e-20,0.001600593058388911,0.0
76,-1.049147023694317,-7.614963767422129,-3.3959237343290942,-2.7646631959283967,-1.312152913161351,-1.3626255879970555,4.1271144543113286e-20,0.0027517986527014807,0.0
77,-0.7045942444884992,-4.274402032184328,-1.7763965406836963,-1.4278947266162811,-0.9105386884747942,-1.1070772743787023,2.3045587047819373e-12,0.040895220416224225,0.0
78,-1.0931895117247674,-6.071710136991317,-3.512359703929453,-2.3418519487902225,-1.6207112793362775,-1.0887851161637185,6.593988231823176e-19,0.00592409133246185,0.0
79,-0.8173300210605035,-3.6174100720018707,-2.2259601093000434,-1.8500249305640795,-1.0307799840023635,-1.289978685270214,1.3716777104639927e-05,0.017886066084093457,0.0
80,-0.4403102977680439,-0.34424708676952775,-0.7674512707225679,-0.31266468400582337,-0.9853692114685781,-0.6886096049998454,7.2063805117924886e-06,0.43635944871287896,0.0
81,-0.8689126614414886,-2.868768678561155,-2.4358878524002727,-1.667367878253951,-1.0118570328345802,-1.4029909801064706,9.292613713215021e-07,0.03071693520655855,0.0
82,-0.8604338059217972,-4.16854373327069,-2.3131198702398392,-1.5911155237544543,-1.1735957894266278,-1.0315409491440746,2.642598887134548e-12,0.014589897207960091,0.0
83,-1.1370369746331555,-7.676800727100666,-3.7922451435447595,-2.5659550725992206,-2.004486023329165,-1.1617268880126113,2.0323984238245703e-30,0.004214050091010715,0.0
84,-0.8998722446065306,-7.632953170013033,-2.6406051147017844,-3.275967767776632,-0.7599258992746754,-0.9549538525898249,8.721346946020227e-28,0.006776120596709674,0.0
85,-0.28652866043845165,-2.020563784620385,-0.557852469205937,-1.4352578648809429,-0.286486464139029,-0.24856757403976676,0.9999999999978542,0.15239394769556253,0.0
86,-0.9592936341427653,-8.120110712133362,-3.150858184505876,-3.1297110099093723,-1.83807580952433,-1.0335010098797617,5.358629948083531e-28,0.005279373497996103,0.0
87,-0.3273897173044272,-0.00783467939671878,-0.4050035697659291,-0.3969930123458356,-0.7218854333156568,-0.2779861796369201,0.02017672522855711,0.3999454316424834,0.0
88,-0.660605578801614,-1.9691400617754038,-1.6523746524825604,-1.046820350711378,-1.0504622070857295,-1.0143644744054134,7.519637747928223e-07,0.059377931918697766,0.0
89,-0.6027915468190638,-1.9894217995146917,-1.5576190502511968,-1.6763861322720972,-0.9122046738451983,-1.1318209328140276,0.8433747688974289,0.07771473034397053,0.0
90,-0.5609708851438205,-2.115042730992879,-1.481130199135584,-1.0538457468048268,-0.8460540052314245,-0.6374582518443512,0.0024673351005814314,0.10889877777797469,0.0
91,-0.6260502140744292,-2.8025328294071317,-1.503621523021645,-1.1096221958270132,-1.0437676264868705,-0.6940201257265557,5.835938379388807e-15,0.06755091159692157,0.0
92,-0.8953801065084495,-5.855817577879453,-2.732341921923255,-2.3605003469649204,-1.149126771423244,-0.9536102987036243,1.854796911295302e-44,0.006067588656547816,0.0
93,-0.9869115368511009,-5.551956144461734,-2.8367755614381127,-2.604657218963111,-1.131278902549029,-1.3871083206093906,3.466261639559184e-12,0.006149496867416541,0.0
94,-0.9284648252810762,-11.609933550826742,-3.4010672396451773,-4.246962825774376,-2.4985381631108146,-1.1388515980017313,8.58891217471282e-43,0.004053621663583395,0.0
95,-0.9743276843726458,-7.044822632801476,-3.2174038709152804,-2.025381944857764,-1.427294769054452,-1.2246062570460694,2.5811678288110074e-23,0.010613506273348946,0.0
96,-0.46478809738221083,-1.5215398389980141,-0.8895510634221365,-0.972770872372748,-1.0053895423414467,-0.9662318560704897,3.5439778369023306e-06,0.06981943097401162,0.0
97,-0.4596690400672917,-0.8983821035320478,-1.0931993769292847,-0.7539517823964461,-1.1999339248065515,-1.0291093620434062,0.9999426813111296,0.36523489086158656,0.0
98,-0.37493091711114945,-2.4142048345969847,-1.0411826474261656,-1.7886962284076988,-0.7142238709842015,-0.5547215259514443,0.9999999999894129,0.16941473023154427,0.0
99,-0.247605768629165,-0.17765931366729726,-0.2771803597211937,-0.5726995900967902,-1.0029588772704217,-0.7247873980724302,0.931491233301714,0.30672602614012884,0.0
100,-0.509149780627297,-1.6444023783239303,-1.2075367762867686,-1.090630625843798,-0.9549314537087942,-0.8616943858558815,0.9999671603697082,0.19597413683303755,0.0
101,-0.08669219314459087,0.5952838657369344,0.38218892484202893,0.03058781570714597,-0.46450242802522945,-0.03527268117792298,0.9792427816870077,0.5944376078571025,0.0
102,-1.2066123103680857,-9.491418403057242,-4.228046298429197,-3.1246782208225428,-1.4797972656795473,-1.1272302542709902,2.030665271030654e-21,0.0020843316666253283,0.0
103,-0.5332177299317481,-0.2027202537426045,-1.0241589843364436,-0.32194919237989605,-0.8062428485759439,-0.5771585083315598,2.096528987072263e-05,0.3858014339805868,0.0
104,-0.6913736547181198,-2.6568589170204113,-1.7365163298909876,-1.5531782779683505,-1.0650592130367431,-1.2747678915514837,0.06963364894958793,0.04340490693915509,0.0
105,-0.30135445868175315,-1.264392416313478,-0.5858816703899854,-1.0370525445815675,-1.1047603323014896,-0.9357626028163673,0.999999999830365,0.14170946887140054,0.0
106,-1.1419637325853955,-10.045796937141027,-4.0680319955977655,-3.136311631596393,-1.2230845979508285,-1.2432037713992314,1.6949256665960348e-39,0.01159214668740935,0.0
107,-0.710085549047527,-1.3999011057748947,-1.7615750548097606,-1.1126201589462221,-1.0449011491880413,-0.9398771104267725,4.648917433433278e-06,0.06756819267935298,0.0
108,-0.7499311345690124,-7.319463347423284,-1.9826365838034254,-2.5335547880030065,-0.8219270913010441,-1.1275643321862654,2.430725148632645e-17,0.007109887100571917,0.0
109,-0.6041750836722839,-1.990740541560605,-1.2928160306981948,-1.060592752191913,-0.9169184471850624,-0.947605911469622,1.9842156264392895e-05,0.07533480947633658,0.0
110,-1.025862056851924,-5.80304408482783,-3.0408088797698882,-2.6319829604306415,-1.163926274394061,-1.4023532397522105,2.078179240437824e-12,0.004540699994309012,0.0
111,-0.7088958084929732,-2.5917181172283312,-1.8146243075129818,-1.2698859739109993,-0.9426022550034727,-0.937326528150688,2.9530890102679797e-13,0.059917000936217546,0.0
112,-0.8683652051407269,-3.764886177739003,-2.3857001467844543,-1.8142651378788948,-1.1237495901603767,-1.2576451235249486,9.92571700214766e-13,0.018968860686817645,0.0
113,-0.9400731910083062,-10.715677055446221,-3.7418479974034633,-3.5467706288321397,-2.264502597775569,-0.9696736074797747,2.0430296096112016e-56,0.06321365659719892,0.0
114,-0.12146371166880099,0.47627535704693846,0.1578401358188395,-0.6745820795395661,-0.3953140014339266,-0.2565755447023736,0.9999999999997229,0.40985715517140336,0.0
115,-0.5265658765880393,-0.8312218297846765,-1.057920149158307,-0.20581428741483432,-0.9336884006555366,-0.9489031929869711,3.0733876194102437e-11,0.23514176622550384,0.0
116,-0.19194773650661895,-0.4430414010257797,-0.1527434912107164,-1.0583861107746317,-0.6575097292539703,-0.44779031367330513,0.9999999775473045,0.23852693138691008,0.0
117,-0.9791538324978688,-6.26174651174409,-2.965999987053361,-2.5698661869232575,-1.072574710496685,-1.208392895417472,1.0930688490201623e-16,0.004237870080531156,0.0
118,-0.5848411149693338,-1.0460014976762915,-1.27329225095185,-0.8610872279467303,-0.8259602057879913,-0.9017964679181496,0.0002033326337385089,0.21136433524147571,0.0
119,-0.9344609424821382,-4.914995737279167,-2.7310625121917003,-1.9819093992114931,-1.1656845574596562,-1.379127702526883,3.94958854742601e-14,0.018768443298067365,0.0
120,0.5231638546495246,6.988741134265157,2.127923650091699,4.346625185401121,1.5537848095813986,0.8665245094597873,0.9999999999999858,0.9998193792627436,0.0
121,-0.47060655052419637,-0.4038589569524582,-0.8717135923798625,-0.7963689764322135,-1.044765972958084,-0.7310375396081337,0.01206237380192042,0.222212152466944,0.0
122,-0.9283973319264471,-4.015416911980995,-2.5340277731094885,-1.9582551434143634,-1.0882658082623187,-1.264091575720208,2.7307850402757693e-10,0.009387750684028646,0.0
123,0.47500289051889955,1.437511454688647,1.6914877543883358,1.658815654126676,1.8404337585196817,1.22527025399739,1.0,0.9811044833261282,0.0
124,-0.25739684557498993,-0.28633197675326993,-0.32241876278587633,-0.5782747198165845,-0.27857238407615037,-0.046833105931387564,0.9994947676613892,0.30211006554926684,0.0
125,-0.5420034369306278,-1.0137530053510615,-1.367098772096755,-1.6990269377303036,-0.8225673449589639,-0.8557092577834633,0.9999999990202113,0.10383257361777193,0.0
126,-0.5770012427460012,-2.2174220272300147,-1.1667184072720134,-1.2467452089478153,-1.0772629078339926,-1.111671098154008,4.673199620622463e-10,0.10733323531808749,0.0
127,1.499665336799942,12.65016725164875,5.173012591836779,7.670442094704131,4.273243733518568,-0.009521883131593023,1.0,0.9999994284544662,0.0
128,-0.7556654626887586,-2.5998018972934145,-1.8222497803446989,-1.8151070684030381,-1.1971738480703893,-1.297885453890464,9.618281210184306e-08,0.02708286038448827,0.0
129,-0.869619629304671,-1.1665246739785087,-2.2116825179086312,-0.7211390021336515,-1.1136639683812364,-1.0770050537887896,7.455093882831882e-12,0.04998935891432023,0.0
130,-0.5852184105036662,-1.0126309485766887,-1.1335133298637683,-0.7601160889324534,-1.0851718369765067,-0.9216066518247155,1.8934747752187243e-08,0.08463919800791427,0.0
131,-0.7037781401357165,-2.1573419237944154,-1.821802430143716,-0.5187755212103164,-0.9490037116671688,-0.9842660141432935,2.6249932284973997e-13,0.10229906237178388,0.0
132,-0.14325184571595956,0.7246593547613651,0.33035532045363825,0.015226266817887968,-1.0676636224408926,-0.9175995730357471,0.00027459887914726484,0.46758240425616787,0.0
133,-0.6106558722124039,-1.882451814547089,-1.421974440873662,-1.3094117520994262,-1.0635655338123098,-1.0890425955436556,2.2544594494408746e-09,0.09649040414701524,0.0
134,0.39501900392069544,2.4511168829563728,2.165032041951985,1.5864272741437628,1.1894996100826996,0.3218354518772782,0.9999999990305071,0.8850652270868065,0.0
135,-0.6506739751932794,-1.0494157894684175,-1.36861485920829,-1.3488345184918318,-1.146808354710032,-1.0367351447184538,1.360112285222773e-06,0.08027776240399546,0.0
136,-0.432599627908647,-1.557401593724745,-0.9277133685304836,-0.9596787134749318,-0.7255134176313685,-0.6009725113056346,0.09436511572805277,0.18375201971945446,0.0
137,-0.1681326846268381,1.7965809106842725,0.16932535067206622,0.15410987807400556,-0.8697554099998521,-0.5795013698191516,0.8559460080128779,0.6665846077079136,0.0
138,-1.0997158545002144,-7.093667701170579,-3.6238481360264676,-2.2083135016357973,-1.7675358231788691,-1.2566264039802868,1.4067232908246877e-21,0.004661436113147312,0.0
139,0.22970810580561596,3.0631256996402705,1.4924947964184598,1.331631120391148,0.19509860688185388,0.597996720672977,0.9999999211509265,0.9267415077029135,0.0
140,0.7779793366245736,4.840640278830997,2.756879895795973,3.536722629725314,4.81942586232212,1.243268203568988,1.0,0.9974178287019694,0.0
141,-0.7692083606114721,-3.7535378977410314,-2.0543266241868454,-2.193171313210386,-1.2898925863751551,-1.3735055067780901,1.6780222616219932e-10,0.024618535123910063,0.0
142,-0.613432391702698,-2.215473105512031,-1.4482416119540602,-1.514012795703132,-1.141057507570152,-1.232704841760824,1.261124177943648e-06,0.06727478036684721,0.0
143,-0.21148475537059852,0.697176955599776,-0.02448581516731907,-0.16514007588317003,-0.8265328872315247,-0.4222212901979349,0.9995493544028639,0.5014797631821806,0.0
144,0.17671762895777154,3.1770546837794287,1.0050183865863658,0.5872792703789029,0.9785438229650678,0.7061767543640185,1.0,0.9732483855496205,0.0
145,-0.969909773854277,-4.514906328917556,-2.889587272367109,-1.622752244912303,-1.3051329722830656,-1.1484167553399034,1.7579915127566377e-14,0.00903610848415301,0.0
146,-0.5987844092456822,-0.7085272938789309,-1.1780442450805937,-0.9504028831171576,-1.125039610338651,-0.8918261725276813,1.1590777342746877e-06,0.11121575894346705,0.0
147,-0.7513929479981779,-3.0807704248380388,-1.8254096053044333,-1.7396008909780116,-1.008056148817367,-1.041417344060862,1.9542283123966745e-11,0.03504556719395953,0.0
148,-0.7375384531818732,-2.934088481203025,-1.8278470884553975,-1.9401385727634048,-1.221867491877193,-1.2276509044056207,1.2776897760817335e-09,0.028186311178533607,0.0
149,-0.7910551103071731,-3.1459357588950216,-2.110707915926981,-2.032279280384036,-1.1854930604286362,-1.2353881501936015,7.730547004425363e-06,0.02117567918343046,0.0
150,-0.18872490168292683,0.08365239877765074,-0.12905097558942913,-0.6914631182437727,-0.9775173857210157,-0.5738843669491726,0.9999988613987884,0.37563342095165597,0.0
151,-0.6284409231120405,-0.49550861881204655,-1.5864940009871997,-0.43573173171952906,-0.3368192652508193,-0.19342588406505873,4.554416336463315e-11,0.2691689082290535,0.0
152,-0.7918987363265171,-1.9359064213669384,-2.0415142683763934,-1.9674452628559154,-0.7441265508829262,-0.8645551737169371,0.0002792750679736769,0.029984936108302634,0.0
153,-0.3386124031771296,-0.656271496843589,-0.5517902717705497,-0.990268327359936,-1.2278562671901423,-1.0249798063521927,0.9999999752984866,0.218935120768517,0.0
154,-0.4937854887388731,-0.9971769047343824,-1.016801810025037,-1.231058432644605,-0.883518376558608,-0.7723290244555365,0.9939980741800635,0.0867241841513333,0.0
155,-1.0095140142960555,-5.841862366668815,-2.974614814190536,-2.1794272627988898,-1.020441827484748,-1.1317168226235375,2.706691464663725e-10,0.003457667281538378,0.0
156,-0.43801695663695184,-0.8964398959294702,-0.7784512326721139,-0.5290221256907275,-1.0001548035433525,-0.7322532663126946,0.9812880364532575,0.1763226553762415,0.0
157,-0.35346835801497395,0.029716372731619423,-0.6107028811318704,-0.6848898055503865,-1.0849686085348018,-0.8856673782167985,0.9999963694940881,0.25791463401918385,0.0
158,-0.9396796796181355,-3.332379786157626,-2.5444352426078187,-1.6612734370323823,-1.1526410950811943,-1.1652514362674544,1.9193820868734604e-11,0.023112133264113155,0.0
159,-0.5540032551908625,-0.8986639707602049,-0.9945339728965622,-1.0024730120524845,-1.0458009240066222,-1.1307993349646255,2.64165061618893e-07,0.11430334517336745,0.0
160,-0.20304822392851196,-0.7933404616638811,-0.09782268231937974,-0.13621031592644517,-0.616868262396852,-0.5982901449988106,0.9999999997606608,0.3246335920865008,0.0
161,-0.5568642154160874,-1.662222086924983,-1.4448468466393332,-1.4638936363811341,-1.2556292115612016,-1.0280970353705445,0.9999999993891606,0.07799196241099184,0.0
162,-0.8113215791201086,-2.2120063682356395,-2.284461449200416,-1.3873366374705123,-1.0801373712174849,-0.8210430446407077,0.00040017410290322353,0.027132607083205956,0.0
163,0.22312095496122275,1.507244101267244,1.0838006879748674,0.7370216151858449,0.9351844995136922,1.0628888907859677,0.9999999999983942,0.8652468928476241,0.0
164,-0.42139681309986643,-0.20429492605270205,-0.6350334135258799,-0.5695938310923241,-0.9744663952200384,-0.9292848295505627,0.00493759506194151,0.21069308366751224,0.0
165,-0.3525368350957966,-0.9262853917886626,-0.6784078720261328,-0.303745288685227,-0.7102996934488655,-0.6513825394668318,0.9999999517179117,0.172181538314893,0.0
166,-0.6579097831627845,-3.571342409313574,-1.737601721291527,-1.8484257888495934,-1.2273562279012038,-1.399904704673043,0.3818502102403577,0.028960119864914934,0.0
167,-0.9605484393553734,-5.444635228101596,-2.630406166850081,-2.294654656628535,-1.2377748584037318,-1.0048761432066085,1.3950577181436541e-15,0.00804244874348095,0.0
168,-1.0100964668408006,-4.3398076785950686,-2.9694628746226903,-2.20619949541192,-1.0489678468629222,-1.3296886879520855,2.156158201918618e-13,0.009989250676415573,0.0
169,-0.7653455445241657,-1.7529613047224504,-1.717344069788699,-1.1079943030503872,-1.061981478382958,-0.8882274448848846,3.592296498292866e-10,0.037513920429331916,0.0
170,-0.7153120042036325,-1.5123061428482094,-1.82720700462895,-1.244657213437896,-1.0472072067344107,-0.8085778608261645,2.035377794363558e-06,0.128929704108002,0.0
171,-0.5000031594383086,-0.6362898016685756,-1.0600343606758758,-0.7057926057065318,-0.9674145714725407,-0.8469684978125225,0.005028482287722205,0.33103688311503726,0.0
172,-0.2594241466784643,-1.2709813851473568,-0.20888930231949243,-0.6935950750549624,-0.2729575317057864,-0.441258332132295,0.999999999818904,0.15000413324499326,0.0
173,-0.7026885933721266,-2.2023486714002685,-1.829470662716511,-1.6100372525763165,-1.0401082076567234,-1.2849848848748653,0.04637906950804742,0.03782908887350887,0.0
174,-0.8098351123081693,-1.320780085724494,-2.0862647704272907,-0.4648307906943261,-0.9379212606830829,-0.8943493488638168,9.343743305625724e-12,0.18058769475263098,0.0
175,-0.2887488159406691,-1.1450336619280939,-0.3931037012693419,-0.9114647331873753,-0.6169641636466752,-0.5642522412522977,0.022065894856880427,0.18950522629127972,0.0
176,0.4422655779637793,1.2929701290489182,1.6655018765351999,1.5385097887877768,1.1375527217324923,1.160693852066034,1.0,0.9476293928179731,0.0
